S3/Archi/TP2/test.vcd
$date
  Thu Oct 24 16:40:50 2019
$end
$version
  GHDL v0
$end
$timescale
  1 fs
$end
$var reg 1 ! a $end
$var reg 1 " b $end
$var reg 1 # c $end
$var reg 1 $ s $end
$var reg 1 % r $end
$scope module df_full_add1 $end
$var reg 1 & a $end
$var reg 1 ' b $end
$var reg 1 ( c $end
$var reg 1 ) s $end
$var reg 1 * r $end
$var reg 2 + resultat[1:0] $end
$upscope $end
$enddefinitions $end
#0
0!
0"
0#
0$
0%
0&
0'
0(
0)
0*
b00 +
#10000000
1!
1$
1&
1)
b01 +
#20000000
0!
1"
0&
1'
#30000000
1!
0$
1%
1&
0)
1*
b10 +
#40000000
0!
0"
1#
1$
0%
0&
0'
1(
1)
0*
b01 +
#50000000
1!
0$
1%
1&
0)
1*
b10 +
#60000000
0!
1"
0&
1'
#70000000
1!
1$
1&
1)
b11 +
#80000000
0!
0#
0%
0&
0(
0*
b01 +
